<svg width="20" height="20" viewBox="0 0 20 20" fill="none" xmlns="http://www.w3.org/2000/svg">
<g clip-path="url(#clip0)">
<path d="M9.99999 0.832031C11.2038 0.832031 12.3958 1.06913 13.5079 1.5298C14.6201 1.99047 15.6306 2.66568 16.4818 3.51689C17.333 4.36809 18.0082 5.37861 18.4689 6.49077C18.9296 7.60292 19.1667 8.79491 19.1667 9.9987C19.1667 11.2025 18.9296 12.3945 18.4689 13.5066C18.0082 14.6188 17.333 15.6293 16.4818 16.4805C15.6306 17.3317 14.6201 18.0069 13.5079 18.4676C12.3958 18.9283 11.2038 19.1654 9.99999 19.1654C7.56884 19.1654 5.23727 18.1996 3.51818 16.4805C1.7991 14.7614 0.833328 12.4298 0.833328 9.9987C0.833328 7.56755 1.7991 5.23597 3.51818 3.51689C5.23727 1.7978 7.56884 0.832031 9.99999 0.832031ZM9.99999 13.0543C9.6961 13.0543 9.40465 13.175 9.18977 13.3899C8.97488 13.6047 8.85416 13.8962 8.85416 14.2001C8.85416 14.504 8.97488 14.7954 9.18977 15.0103C9.40465 15.2252 9.6961 15.3459 9.99999 15.3459C10.3039 15.3459 10.5953 15.2252 10.8102 15.0103C11.0251 14.7954 11.1458 14.504 11.1458 14.2001C11.1458 13.8962 11.0251 13.6047 10.8102 13.3899C10.5953 13.175 10.3039 13.0543 9.99999 13.0543ZM9.99999 4.65148C9.82121 4.65142 9.64806 4.71407 9.51071 4.82853C9.37336 4.94299 9.28051 5.102 9.24833 5.27786L9.2361 5.41536V10.7626L9.24833 10.9001C9.28022 11.0762 9.37294 11.2355 9.51032 11.3503C9.6477 11.465 9.821 11.5279 9.99999 11.5279C10.179 11.5279 10.3523 11.465 10.4897 11.3503C10.627 11.2355 10.7198 11.0762 10.7517 10.9001L10.7639 10.7626V5.41536L10.7517 5.27786C10.7195 5.102 10.6266 4.94299 10.4893 4.82853C10.3519 4.71407 10.1788 4.65142 9.99999 4.65148Z" fill="#CC1503"/>
</g>
<defs>
<clipPath id="clip0">
<rect width="20" height="20" fill="white"/>
</clipPath>
</defs>
</svg>
